<?xml version="1.0" encoding="UTF-8" standalone="no"?>
<!-- Created with Inkscape (http://www.inkscape.org/) -->

<svg
   xmlns:dc="http://purl.org/dc/elements/1.1/"
   xmlns:cc="http://creativecommons.org/ns#"
   xmlns:rdf="http://www.w3.org/1999/02/22-rdf-syntax-ns#"
   xmlns:svg="http://www.w3.org/2000/svg"
   xmlns="http://www.w3.org/2000/svg"
   xmlns:sodipodi="http://sodipodi.sourceforge.net/DTD/sodipodi-0.dtd"
   xmlns:inkscape="http://www.inkscape.org/namespaces/inkscape"
   width="40"
   height="120"
   viewBox="0 0 10.583333 31.750001"
   version="1.1"
   id="svg8"
   inkscape:version="0.92.5 (2060ec1f9f, 2020-04-08)"
   sodipodi:docname="sprite2.svg">
  <defs
     id="defs2">
    <clipPath
       id="clip0">
      <rect
         id="rect825"
         height="40"
         width="40"
         x="0"
         y="0"
         style="fill:#ffffff" />
    </clipPath>
  </defs>
  <sodipodi:namedview
     id="base"
     pagecolor="#ffffff"
     bordercolor="#666666"
     borderopacity="1.0"
     inkscape:pageopacity="0.0"
     inkscape:pageshadow="2"
     inkscape:zoom="1.979899"
     inkscape:cx="-87.233304"
     inkscape:cy="72.391299"
     inkscape:document-units="mm"
     inkscape:current-layer="layer1"
     showgrid="false"
     units="px"
     inkscape:window-width="1848"
     inkscape:window-height="1016"
     inkscape:window-x="72"
     inkscape:window-y="27"
     inkscape:window-maximized="1" />
  <metadata
     id="metadata5">
    <rdf:RDF>
      <cc:Work
         rdf:about="">
        <dc:format>image/svg+xml</dc:format>
        <dc:type
           rdf:resource="http://purl.org/dc/dcmitype/StillImage" />
        <dc:title></dc:title>
      </cc:Work>
    </rdf:RDF>
  </metadata>
  <g
     inkscape:label="Layer 1"
     inkscape:groupmode="layer"
     id="layer1"
     transform="translate(0,-265.24998)">
    <g
       style="fill:none"
       id="g843"
       transform="matrix(0.26458333,0,0,0.26458333,2.0184251e-6,265.24998)">
      <g
         id="g823"
         clip-path="url(#clip0)">
        <path
           id="path815"
           d="m 33.0167,2.86587 c -0.0446,0 -0.0891,0.00458 -0.1329,0.0135 C 28.5391,3.76909 24.0187,2.96788 20.2443,0.639226 L 19.3649,0.0991915 c -0.2139,-0.1312584 -0.4834,-0.1312584 -0.6973,0 L 17.7882,0.639226 C 14.0135,2.96696 9.49305,3.76718 5.14869,2.8767 4.78791,2.80303 4.43572,3.0358 4.36214,3.39657 4.35305,3.44116 4.34855,3.48658 4.34863,3.53208 V 24.0267 c -0.00116,2.6339 0.69938,5.2205 2.02947,7.4939 1.52301,2.6185 3.8395,4.6847 6.6144,5.8997 l 5.7571,2.5248 c 0.17,0.0743 0.3633,0.0743 0.5333,0 l 5.7591,-2.5248 c 0.324,-0.142 0.6427,-0.2961 0.9534,-0.4607 0.3253,-0.1727 0.449,-0.5764 0.2763,-0.9018 -0.1727,-0.3253 -0.5764,-0.449 -0.9017,-0.2763 -0.2818,0.1493 -0.5696,0.2884 -0.8634,0.4174 l -5.4904,2.4074 -5.4883,-2.4054 C 11.0102,35.0977 8.90885,33.2222 7.52751,30.8458 6.31709,28.7763 5.68005,26.4216 5.68205,24.0241 V 4.32871 C 10.1173,5.03709 14.6595,4.13037 18.4829,1.77322 l 0.5333,-0.32602 0.5334,0.32535 c 3.8228,2.35832 8.3655,3.26538 12.8008,2.55616 V 24.024 c 0,0.3682 0.2986,0.6667 0.6668,0.6667 0.3681,0 0.6667,-0.2985 0.6667,-0.6667 V 3.532 c -3e-4,-0.36819 -0.299,-0.66646 -0.6672,-0.66613 z"
           inkscape:connector-curvature="0"
           style="fill:#fe5f55" />
        <path
           id="path817"
           d="M 18.9668,5.00604 C 18.7948,4.68043 18.3915,4.55592 18.0659,4.72794 18.0487,4.73702 18.0318,4.74694 18.0154,4.75752 14.94,6.55905 11.3118,7.17351 7.8147,6.48497 7.45393,6.41129 7.10174,6.64406 7.02815,7.00483 7.01915,7.049 7.01465,7.09392 7.01465,7.13901 V 23.0667 c 0.00125,2.0871 0.5807,4.1332 1.67411,5.911 1.27683,2.0817 3.17924,3.7064 5.43504,4.6417 0.3397,0.1423 0.7304,-0.0177 0.8727,-0.3574 0.1423,-0.3397 -0.0177,-0.7304 -0.3574,-0.8727 C 12.6413,31.5618 10.9564,30.1235 9.8255,28.2804 8.86102,26.7123 8.34965,24.9077 8.34807,23.0667 V 7.92839 C 11.9245,8.44834 15.5714,7.73538 18.6887,5.90693 19.0143,5.735 19.1388,5.33164 18.9668,5.00604 Z"
           inkscape:connector-curvature="0"
           style="fill:#fe5f55" />
        <path
           id="path819"
           d="M 35.4219,33.5302 C 35.1721,33.3131 34.8007,33.3121 34.5498,33.528 l -3.1882,3.1883 c -0.2223,-0.0667 -0.4591,-0.0667 -0.6814,0 l -5.855,-5.8551 c -0.2649,-0.2558 -0.687,-0.2484 -0.9428,0.0164 -0.2495,0.2584 -0.2495,0.668 0,0.9263 l 5.8544,5.8551 c -0.1974,0.6999 0.21,1.4273 0.9099,1.6247 0.1202,0.0339 0.2446,0.0505 0.3695,0.0494 0.7365,0 1.3335,-0.597 1.3335,-1.3334 -0.0016,-0.1153 -0.0185,-0.2299 -0.05,-0.3407 l 3.1882,-3.1882 c 0.2415,-0.278 0.212,-0.6991 -0.066,-0.9406 z"
           inkscape:connector-curvature="0"
           style="fill:#fe5f55" />
        <path
           id="path821"
           d="m 29.4883,14.861 -2.6668,-2.6669 c -0.2604,-0.2602 -0.6824,-0.2602 -0.9428,0 L 17.6829,20.39 15.4874,18.1945 c -0.2604,-0.2603 -0.6824,-0.2603 -0.9427,0 l -2.6669,2.6669 c -0.2602,0.2603 -0.2602,0.6823 0,0.9427 l 5.3337,5.3337 c 0.125,0.125 0.2945,0.1953 0.4714,0.1953 0.1768,0 0.3463,-0.0703 0.4713,-0.1953 L 29.4883,15.8037 c 0.2603,-0.2604 0.2603,-0.6824 0,-0.9427 z m -11.8054,10.8627 -4.3883,-4.391 1.7214,-1.7241 2.2002,2.1955 c 0.2603,0.2602 0.6823,0.2602 0.9427,0 l 8.1912,-8.1959 1.7268,1.7241 z"
           inkscape:connector-curvature="0"
           style="fill:#fe5f55" />
      </g>
    </g>
    <g
       style="fill:none"
       id="g874"
       transform="matrix(0.26458333,0,0,0.26458333,1.0451042e-4,275.83331)">
      <path
         id="path845"
         d="M 29.4928,0 H 10.5064 C 8.64622,0 7.13281,1.51341 7.13281,3.37363 V 36.6263 C 7.13281,38.4866 8.64622,40 10.5064,40 h 18.9863 c 1.8603,0 3.3737,-1.5134 3.3737,-3.3736 V 3.37363 C 32.8664,1.51341 31.353,0 29.4928,0 Z M 10.5064,1.3544 h 18.9863 c 1.1135,0 2.0193,0.90583 2.0193,2.01923 V 6.13995 H 8.48721 V 3.37363 c 0,-1.1134 0.90583,-2.01923 2.01919,-2.01923 z M 31.512,7.49436 V 32.5056 H 8.48721 V 7.49436 Z M 29.4928,38.6456 H 10.5064 c -1.11336,0 -2.01919,-0.9058 -2.01919,-2.0192 V 33.86 H 31.512 v 2.7664 c 0,1.1134 -0.9058,2.0192 -2.0192,2.0192 z"
         inkscape:connector-curvature="0"
         style="fill:#fe5f55" />
      <path
         id="path847"
         d="m 17.1098,4.42438 h 5.7788 c 0.3741,0 0.6772,-0.30321 0.6772,-0.6772 0,-0.374 -0.3031,-0.6772 -0.6772,-0.6772 h -5.7788 c -0.3741,0 -0.6772,0.3032 -0.6772,0.6772 0,0.37399 0.3031,0.6772 0.6772,0.6772 z"
         inkscape:connector-curvature="0"
         style="fill:#fe5f55" />
      <path
         id="path849"
         d="m 19.9994,34.1855 c -1.1202,0 -2.0316,0.9113 -2.0316,2.0316 0,1.1202 0.9114,2.0316 2.0316,2.0316 1.1202,0 2.0316,-0.9114 2.0316,-2.0316 0,-1.1203 -0.9114,-2.0316 -2.0316,-2.0316 z m 0,2.7088 c -0.3735,0 -0.6772,-0.3038 -0.6772,-0.6772 0,-0.3735 0.3037,-0.6772 0.6772,-0.6772 0.3734,0 0.6772,0.3037 0.6772,0.6772 0,0.3734 -0.3038,0.6772 -0.6772,0.6772 z"
         inkscape:connector-curvature="0"
         style="fill:#fe5f55" />
      <path
         id="path851"
         d="m 10.7221,31.1514 h 2.8441 c 0.3741,0 0.6772,-0.3032 0.6772,-0.6772 v -6.0945 c 0,-0.374 -0.3031,-0.6772 -0.6772,-0.6772 h -2.8441 c -0.3741,0 -0.6772,0.3032 -0.6772,0.6772 v 6.0945 c 0,0.3741 0.3031,0.6772 0.6772,0.6772 z m 0.6772,-6.0944 h 1.4897 v 4.7401 h -1.4897 z"
         inkscape:connector-curvature="0"
         style="fill:#fe5f55" />
      <path
         id="path853"
         d="m 15.9594,31.1506 h 2.8441 c 0.3741,0 0.6772,-0.3032 0.6772,-0.6772 V 19.729 c 0,-0.374 -0.3031,-0.6772 -0.6772,-0.6772 h -2.8441 c -0.3741,0 -0.6772,0.3032 -0.6772,0.6772 v 10.7444 c 0,0.3741 0.3031,0.6772 0.6772,0.6772 z m 0.6772,-10.7444 h 1.4897 v 9.39 h -1.4897 z"
         inkscape:connector-curvature="0"
         style="fill:#fe5f55" />
      <path
         id="path855"
         d="m 21.1958,31.1516 h 2.844 c 0.3741,0 0.6772,-0.3032 0.6772,-0.6772 V 15.0801 c 0,-0.374 -0.3031,-0.6772 -0.6772,-0.6772 h -2.844 c -0.3741,0 -0.6772,0.3032 -0.6772,0.6772 v 15.3943 c 0,0.374 0.3031,0.6772 0.6772,0.6772 z M 21.873,15.7573 h 1.4896 V 29.7972 H 21.873 Z"
         inkscape:connector-curvature="0"
         style="fill:#fe5f55" />
      <path
         id="path857"
         d="m 26.4331,31.1507 h 2.844 c 0.3741,0 0.6772,-0.3032 0.6772,-0.6772 v -20.044 c 0,-0.374 -0.3031,-0.67724 -0.6772,-0.67724 h -2.844 c -0.3741,0 -0.6772,0.30324 -0.6772,0.67724 v 20.0441 c 0,0.374 0.3032,0.6771 0.6772,0.6771 z m 0.6772,-20.044 h 1.4896 v 18.6897 h -1.4896 z"
         inkscape:connector-curvature="0"
         style="fill:#fe5f55" />
    </g>
    <g
       style="fill:none"
       id="g899"
       transform="matrix(0.26458333,0,0,0.26458333,0,286.41665)">
      <path
         id="path876"
         d="m 20.7812,24.6875 c 0,-0.431 -0.3492,-0.7808 -0.7812,-0.7812 -0.4272,-6e-4 -0.7812,0.346 -0.7812,0.7812 0,0.431 0.3492,0.7808 0.7812,0.7812 0.4272,6e-4 0.7812,-0.346 0.7812,-0.7812 z"
         inkscape:connector-curvature="0"
         style="fill:#fe5f55" />
      <path
         id="path878"
         d="M 20,0 C 9.21773,0 0,9.2043 0,20 0,30.7823 9.2043,40 20,40 30.7823,40 40,30.7957 40,20 40,9.21773 30.7957,0 20,0 Z m 0,38.4375 C 10.0059,38.4375 1.5625,29.9941 1.5625,20 1.5625,10.0059 10.0059,1.5625 20,1.5625 c 9.9941,0 18.4375,8.4434 18.4375,18.4375 0,9.9941 -8.4434,18.4375 -18.4375,18.4375 z"
         inkscape:connector-curvature="0"
         style="fill:#fe5f55" />
      <path
         id="path880"
         d="M 20,4.375 C 11.4061,4.375 4.375,11.3528 4.375,20 4.375,28.5902 11.3465,35.625 20,35.625 28.5902,35.625 35.625,28.6534 35.625,20 35.625,11.4098 28.6535,4.375 20,4.375 Z m 12.5,16.4055 h 1.5405 c -0.1748,3.1978 -1.4203,6.1999 -3.5646,8.5905 l -1.0843,-1.0844 c -0.3051,-0.305 -0.7998,-0.305 -1.105,0 -0.305,0.3051 -0.305,0.7998 0,1.105 l 1.0844,1.0843 c -2.3908,2.1444 -5.392,3.3898 -8.5898,3.5646 V 32.5 c 0,-0.4315 -0.3497,-0.7812 -0.7812,-0.7812 -0.4315,0 -0.7812,0.3497 -0.7812,0.7812 v 1.5405 C 16.0209,33.8657 13.0196,32.6202 10.629,30.4759 l 1.0844,-1.0843 c 0.305,-0.3051 0.305,-0.7998 0,-1.105 -0.3051,-0.305 -0.7998,-0.305 -1.105,0 L 9.52406,29.371 C 7.37969,26.9802 6.1343,23.979 5.95953,20.7812 H 7.5 c 0.43148,0 0.78125,-0.3497 0.78125,-0.7812 0,-0.4315 -0.34977,-0.7812 -0.78125,-0.7812 H 5.95953 C 6.1343,16.0209 7.37977,13.0196 9.52406,10.629 l 1.08434,1.0844 c 0.3051,0.305 0.7998,0.305 1.105,0 0.305,-0.3051 0.305,-0.7998 0,-1.105 L 10.629,9.52406 C 13.0198,7.37969 16.021,6.1343 19.2188,5.95953 V 7.5 c 0,0.43148 0.3497,0.78125 0.7812,0.78125 0.4315,0 0.7812,-0.34977 0.7812,-0.78125 V 5.95953 c 3.1979,0.17477 6.1992,1.42024 8.5898,3.56453 l -1.0844,1.08434 c -0.305,0.3051 -0.305,0.7998 0,1.105 0.3051,0.305 0.7998,0.305 1.105,0 l 1.0843,-1.0844 c 2.1444,2.3908 3.3898,5.3919 3.5646,8.5898 H 32.5 c -0.4315,0 -0.7812,0.3497 -0.7812,0.7812 0,0.4315 0.3497,0.7805 0.7812,0.7805 z"
         inkscape:connector-curvature="0"
         style="fill:#fe5f55" />
      <path
         id="path882"
         d="m 26.9714,14.9059 -5.4805,3.2885 C 21.2794,18.0205 21.0391,17.8845 20.7812,17.7927 V 13.75 c 0,-0.4315 -0.3497,-0.7812 -0.7812,-0.7812 -0.4315,0 -0.7813,0.3497 -0.7813,0.7812 v 4.0406 c -0.9092,0.3225 -1.5625,1.1909 -1.5625,2.2094 0,1.2923 1.0515,2.3438 2.3438,2.3438 1.2923,0 2.3437,-1.0515 2.3437,-2.3438 0,-0.1576 -0.016,-0.3139 -0.0471,-0.467 l 5.4788,-3.2873 c 0.37,-0.2219 0.4899,-0.7019 0.2679,-1.0719 -0.2221,-0.37 -0.7021,-0.4898 -1.0719,-0.2679 z m -6.9715,5.8753 c -0.4308,0 -0.7812,-0.3504 -0.7812,-0.7812 0,-0.4308 0.3504,-0.7812 0.7812,-0.7812 0.4506,0 0.7813,0.3669 0.7813,0.7812 0,0.4308 -0.3505,0.7812 -0.7813,0.7812 z"
         inkscape:connector-curvature="0"
         style="fill:#fe5f55" />
      <path
         id="path884"
         d="m 23.125,23.9062 c -0.4315,0 -0.7812,0.3498 -0.7812,0.7813 0,0.4315 0.3497,0.7813 0.7812,0.7813 0.4308,0 0.7812,0.3504 0.7812,0.7812 0,0.4308 -0.3504,0.7812 -0.7812,0.7812 h -6.25 c -0.4308,0 -0.7812,-0.3504 -0.7812,-0.7812 0,-0.4308 0.3504,-0.7812 0.7812,-0.7812 0.4315,0 0.7812,-0.3498 0.7812,-0.7813 0,-0.4315 -0.3497,-0.7813 -0.7812,-0.7813 -1.2923,0 -2.3438,1.0515 -2.3438,2.3438 0,1.2923 1.0515,2.3438 2.3438,2.3438 h 6.25 c 1.2923,0 2.3438,-1.0515 2.3438,-2.3438 0,-1.2923 -1.0515,-2.3438 -2.3438,-2.3438 z"
         inkscape:connector-curvature="0"
         style="fill:#fe5f55" />
    </g>
  </g>
</svg>
